{
    "key": "group_6176b4b2841aa",
    "title": "[Block] Innerpage - Image and Text Section",
    "fields": [
        {
            "key": "field_6176b7cc84012",
            "label": "Image and Text Section",
            "name": "",
            "type": "message",
            "instructions": "",
            "required": 0,
            "conditional_logic": 0,
            "wrapper": {
                "width": "",
                "class": "",
                "id": ""
            },
            "message": "",
            "new_lines": "wpautop",
            "esc_html": 0
        },
        {
            "key": "field_6176c0bb2b611",
            "label": "Content Background Color",
            "name": "background_color",
            "type": "button_group",
            "instructions": "",
            "required": 1,
            "conditional_logic": 0,
            "wrapper": {
                "width": "50",
                "class": "",
                "id": ""
            },
            "choices": {
                "#FFF": "White",
                "#000": "Black",
                "#DCE0E1": "Light Gray",
                "#e1efde": "Light Green",
                "#1f8a5e": "Dark Green"
            },
            "allow_null": 0,
            "default_value": "",
            "layout": "horizontal",
            "return_format": "value"
        },
        {
            "key": "field_6196326392bfd",
            "label": "Slanted Corner (Only in Table\/Mobile View)",
            "name": "slanted_option",
            "type": "button_group",
            "instructions": "",
            "required": 0,
            "conditional_logic": 0,
            "wrapper": {
                "width": "50",
                "class": "",
                "id": ""
            },
            "choices": {
                "none": "None",
                "both": "Top and Bottom"
            },
            "allow_null": 0,
            "default_value": "none : None",
            "layout": "horizontal",
            "return_format": "value"
        },
        {
            "key": "field_6195371175b86",
            "label": "Desktop",
            "name": "",
            "type": "tab",
            "instructions": "",
            "required": 0,
            "conditional_logic": 0,
            "wrapper": {
                "width": "",
                "class": "",
                "id": ""
            },
            "placement": "top",
            "endpoint": 0
        },
        {
            "key": "field_61953120c0b58",
            "label": "Top Spacing",
            "name": "top_spacing_desktop",
            "type": "select",
            "instructions": "",
            "required": 0,
            "conditional_logic": 0,
            "wrapper": {
                "width": "50",
                "class": "",
                "id": ""
            },
            "choices": {
                "-80px": "-80px",
                "-70px": "-70px",
                "-60px": "-60px",
                "-50px": "-50px",
                "-40px": "-40px",
                "-30px": "-30px",
                "-20px": "-20px",
                "-10px": "-10px",
                "0px": "0px",
                "10px": "10px",
                "20px": "20px",
                "30px": "30px",
                "40px": "40px",
                "50px": "50px",
                "60px": "60px",
                "70px": "70px",
                "80px": "80px"
            },
            "default_value": "0px",
            "allow_null": 0,
            "multiple": 0,
            "ui": 0,
            "return_format": "value",
            "ajax": 0,
            "placeholder": ""
        },
        {
            "key": "field_6195314fc0b59",
            "label": "Bottom Spacing",
            "name": "bottom_spacing_desktop",
            "type": "select",
            "instructions": "",
            "required": 0,
            "conditional_logic": 0,
            "wrapper": {
                "width": "50",
                "class": "",
                "id": ""
            },
            "choices": {
                "-80px": "-80px",
                "-70px": "-70px",
                "-60px": "-60px",
                "-50px": "-50px",
                "-40px": "-40px",
                "-30px": "-30px",
                "-20px": "-20px",
                "-10px": "-10px",
                "0px": "0px",
                "10px": "10px",
                "20px": "20px",
                "30px": "30px",
                "40px": "40px",
                "50px": "50px",
                "60px": "60px",
                "70px": "70px",
                "80px": "80px"
            },
            "default_value": "0px",
            "allow_null": 0,
            "multiple": 0,
            "ui": 0,
            "return_format": "value",
            "ajax": 0,
            "placeholder": ""
        },
        {
            "key": "field_619537876f2c2",
            "label": "Tablet",
            "name": "",
            "type": "tab",
            "instructions": "",
            "required": 0,
            "conditional_logic": 0,
            "wrapper": {
                "width": "",
                "class": "",
                "id": ""
            },
            "placement": "top",
            "endpoint": 0
        },
        {
            "key": "field_6195379e6f2c3",
            "label": "Top Spacing",
            "name": "top_spacing_tablet",
            "type": "select",
            "instructions": "",
            "required": 0,
            "conditional_logic": 0,
            "wrapper": {
                "width": "50",
                "class": "",
                "id": ""
            },
            "choices": {
                "-80px": "-80px",
                "-70px": "-70px",
                "-60px": "-60px",
                "-50px": "-50px",
                "-40px": "-40px",
                "-30px": "-30px",
                "-20px": "-20px",
                "-10px": "-10px",
                "0px": "0px",
                "10px": "10px",
                "20px": "20px",
                "30px": "30px",
                "40px": "40px",
                "50px": "50px",
                "60px": "60px",
                "70px": "70px",
                "80px": "80px"
            },
            "default_value": "0px",
            "allow_null": 0,
            "multiple": 0,
            "ui": 0,
            "return_format": "value",
            "ajax": 0,
            "placeholder": ""
        },
        {
            "key": "field_619537bd6f2c4",
            "label": "Bottom Spacing",
            "name": "bottom_spacing_tablet",
            "type": "select",
            "instructions": "",
            "required": 0,
            "conditional_logic": 0,
            "wrapper": {
                "width": "50",
                "class": "",
                "id": ""
            },
            "choices": {
                "-80px": "-80px",
                "-70px": "-70px",
                "-60px": "-60px",
                "-50px": "-50px",
                "-40px": "-40px",
                "-30px": "-30px",
                "-20px": "-20px",
                "-10px": "-10px",
                "0px": "0px",
                "10px": "10px",
                "20px": "20px",
                "30px": "30px",
                "40px": "40px",
                "50px": "50px",
                "60px": "60px",
                "70px": "70px",
                "80px": "80px"
            },
            "default_value": "0px",
            "allow_null": 0,
            "multiple": 0,
            "ui": 0,
            "return_format": "value",
            "ajax": 0,
            "placeholder": ""
        },
        {
            "key": "field_619538ef558c6",
            "label": "Mobile",
            "name": "",
            "type": "tab",
            "instructions": "",
            "required": 0,
            "conditional_logic": 0,
            "wrapper": {
                "width": "",
                "class": "",
                "id": ""
            },
            "placement": "top",
            "endpoint": 0
        },
        {
            "key": "field_61953901558c7",
            "label": "Top Spacing",
            "name": "top_spacing_mobile",
            "type": "select",
            "instructions": "",
            "required": 0,
            "conditional_logic": 0,
            "wrapper": {
                "width": "50",
                "class": "",
                "id": ""
            },
            "choices": {
                "-80px": "-80px",
                "-70px": "-70px",
                "-60px": "-60px",
                "-50px": "-50px",
                "-40px": "-40px",
                "-30px": "-30px",
                "-20px": "-20px",
                "-10px": "-10px",
                "0px": "0px",
                "10px": "10px",
                "20px": "20px",
                "30px": "30px",
                "40px": "40px",
                "50px": "50px",
                "60px": "60px",
                "70px": "70px",
                "80px": "80px"
            },
            "default_value": "0px",
            "allow_null": 0,
            "multiple": 0,
            "ui": 0,
            "return_format": "value",
            "ajax": 0,
            "placeholder": ""
        },
        {
            "key": "field_61953908558c8",
            "label": "Bottom Spacing",
            "name": "bottom_spacing_mobile",
            "type": "select",
            "instructions": "",
            "required": 0,
            "conditional_logic": 0,
            "wrapper": {
                "width": "50",
                "class": "",
                "id": ""
            },
            "choices": {
                "-80px": "-80px",
                "-70px": "-70px",
                "-60px": "-60px",
                "-50px": "-50px",
                "-40px": "-40px",
                "-30px": "-30px",
                "-20px": "-20px",
                "-10px": "-10px",
                "0px": "0px",
                "10px": "10px",
                "20px": "20px",
                "30px": "30px",
                "40px": "40px",
                "50px": "50px",
                "60px": "60px",
                "70px": "70px",
                "80px": "80px"
            },
            "default_value": "0px",
            "allow_null": 0,
            "multiple": 0,
            "ui": 0,
            "return_format": "value",
            "ajax": 0,
            "placeholder": ""
        },
        {
            "key": "field_619536d90f24f",
            "label": "Content Section",
            "name": "",
            "type": "tab",
            "instructions": "",
            "required": 0,
            "conditional_logic": 0,
            "wrapper": {
                "width": "",
                "class": "",
                "id": ""
            },
            "placement": "top",
            "endpoint": 1
        },
        {
            "key": "field_6176b6f30aa9b",
            "label": "Image",
            "name": "image",
            "type": "image",
            "instructions": "WebFX recommends image dimensions of 782x672 pixels",
            "required": 0,
            "conditional_logic": 0,
            "wrapper": {
                "width": "50",
                "class": "",
                "id": ""
            },
            "return_format": "id",
            "preview_size": "medium",
            "library": "all",
            "min_width": "",
            "min_height": "",
            "min_size": "",
            "max_width": "",
            "max_height": "",
            "max_size": "",
            "mime_types": ""
        },
        {
            "key": "field_6176c4509e516",
            "label": "Image Position",
            "name": "image_position",
            "type": "select",
            "instructions": "",
            "required": 1,
            "conditional_logic": 0,
            "wrapper": {
                "width": "50",
                "class": "",
                "id": ""
            },
            "choices": {
                "left": "Left",
                "right": "Right"
            },
            "default_value": false,
            "allow_null": 0,
            "multiple": 0,
            "ui": 0,
            "return_format": "value",
            "ajax": 0,
            "placeholder": ""
        },
        {
            "key": "field_6176b716cb736",
            "label": "Content",
            "name": "content",
            "type": "wysiwyg",
            "instructions": "",
            "required": 0,
            "conditional_logic": 0,
            "wrapper": {
                "width": "",
                "class": "",
                "id": ""
            },
            "default_value": "",
            "tabs": "all",
            "toolbar": "full",
            "media_upload": 1,
            "delay": 0
        },
        {
            "key": "field_6176b720cb737",
            "label": "Button Label",
            "name": "button_label",
            "type": "text",
            "instructions": "",
            "required": 0,
            "conditional_logic": 0,
            "wrapper": {
                "width": "",
                "class": "",
                "id": ""
            },
            "default_value": "",
            "placeholder": "",
            "prepend": "",
            "append": "",
            "maxlength": ""
        },
        {
            "key": "field_6176b730cb738",
            "label": "Button Link",
            "name": "button_link",
            "type": "link",
            "instructions": "",
            "required": 0,
            "conditional_logic": 0,
            "wrapper": {
                "width": "",
                "class": "",
                "id": ""
            },
            "return_format": "array"
        }
    ],
    "location": [
        [
            {
                "param": "block",
                "operator": "==",
                "value": "acf\/innerpage-image-text-section"
            }
        ]
    ],
    "menu_order": 0,
    "position": "normal",
    "style": "default",
    "label_placement": "top",
    "instruction_placement": "label",
    "hide_on_screen": "",
    "active": true,
    "description": "",
    "show_in_rest": 0,
    "modified": 1637257785
}